{
  "project_info": {
    "project_number": "1008098851177",
    "firebase_url": "https://firestoretest-fa3df.firebaseio.com",
    "project_id": "firestoretest-fa3df",
    "storage_bucket": "firestoretest-fa3df.appspot.com"
  },
  "client": [
    {
      "client_info": {
        "mobilesdk_app_id": "1:1008098851177:android:c483bd7e7e92f0c66b65f8",
        "android_client_info": {
          "package_name": "com.example.firestoretest"
        }
      },
      "oauth_client": [
        {
          "client_id": "1008098851177-atnvt4bhq8oqa0qmnligmda582tot0p4.apps.googleusercontent.com",
          "client_type": 1,
          "android_info": {
            "package_name": "com.example.firestoretest",
            "certificate_hash": "8b2472fcb756a499cac9cb6058e2a5b73522a921"
          }
        },
        {
          "client_id": "1008098851177-pic52gsnhviiv5ob1jutqk6bpub99js2.apps.googleusercontent.com",
          "client_type": 3
        }
      ],
      "api_key": [
        {
          "current_key": "AIzaSyBAeyBN73Ce_yOUqgzEaatwGcKaIGWnwTw"
        }
      ],
      "services": {
        "appinvite_service": {
          "other_platform_oauth_client": [
            {
              "client_id": "1008098851177-pic52gsnhviiv5ob1jutqk6bpub99js2.apps.googleusercontent.com",
              "client_type": 3
            }
          ]
        }
      }
    }
  ],
  "configuration_version": "1"
}